%YAML 1.1
%TAG !u! tag:unity3d.com,2011:
--- !u!29 &1
OcclusionCullingSettings:
  m_ObjectHideFlags: 0
  serializedVersion: 2
  m_OcclusionBakeSettings:
    smallestOccluder: 5
    smallestHole: 0.25
    backfaceThreshold: 100
  m_SceneGUID: 00000000000000000000000000000000
  m_OcclusionCullingData: {fileID: 0}
--- !u!104 &2
RenderSettings:
  m_ObjectHideFlags: 0
  serializedVersion: 9
  m_Fog: 0
  m_FogColor: {r: 0.5, g: 0.5, b: 0.5, a: 1}
  m_FogMode: 3
  m_FogDensity: 0.01
  m_LinearFogStart: 0
  m_LinearFogEnd: 300
  m_AmbientSkyColor: {r: 0.212, g: 0.227, b: 0.259, a: 1}
  m_AmbientEquatorColor: {r: 0.114, g: 0.125, b: 0.133, a: 1}
  m_AmbientGroundColor: {r: 0.047, g: 0.043, b: 0.035, a: 1}
  m_AmbientIntensity: 1
  m_AmbientMode: 0
  m_SubtractiveShadowColor: {r: 0.42, g: 0.478, b: 0.627, a: 1}
  m_SkyboxMaterial: {fileID: 10304, guid: 0000000000000000f000000000000000, type: 0}
  m_HaloStrength: 0.5
  m_FlareStrength: 1
  m_FlareFadeSpeed: 3
  m_HaloTexture: {fileID: 0}
  m_SpotCookie: {fileID: 10001, guid: 0000000000000000e000000000000000, type: 0}
  m_DefaultReflectionMode: 0
  m_DefaultReflectionResolution: 128
  m_ReflectionBounces: 1
  m_ReflectionIntensity: 1
  m_CustomReflection: {fileID: 0}
  m_Sun: {fileID: 0}
  m_IndirectSpecularColor: {r: 0.18028378, g: 0.22571412, b: 0.30692285, a: 1}
  m_UseRadianceAmbientProbe: 0
--- !u!157 &3
LightmapSettings:
  m_ObjectHideFlags: 0
  serializedVersion: 11
  m_GIWorkflowMode: 0
  m_GISettings:
    serializedVersion: 2
    m_BounceScale: 1
    m_IndirectOutputScale: 1
    m_AlbedoBoost: 1
    m_TemporalCoherenceThreshold: 1
    m_EnvironmentLightingMode: 0
    m_EnableBakedLightmaps: 1
    m_EnableRealtimeLightmaps: 1
  m_LightmapEditorSettings:
    serializedVersion: 10
    m_Resolution: 2
    m_BakeResolution: 40
    m_AtlasSize: 1024
    m_AO: 0
    m_AOMaxDistance: 1
    m_CompAOExponent: 0
    m_CompAOExponentDirect: 0
    m_Padding: 2
    m_LightmapParameters: {fileID: 0}
    m_LightmapsBakeMode: 1
    m_TextureCompression: 1
    m_FinalGather: 0
    m_FinalGatherFiltering: 1
    m_FinalGatherRayCount: 1024
    m_ReflectionCompression: 2
    m_MixedBakeMode: 1
    m_BakeBackend: 0
    m_PVRSampling: 1
    m_PVRDirectSampleCount: 32
    m_PVRSampleCount: 500
    m_PVRBounces: 2
    m_PVRFilterTypeDirect: 0
    m_PVRFilterTypeIndirect: 0
    m_PVRFilterTypeAO: 0
    m_PVRFilteringMode: 0
    m_PVRCulling: 1
    m_PVRFilteringGaussRadiusDirect: 1
    m_PVRFilteringGaussRadiusIndirect: 5
    m_PVRFilteringGaussRadiusAO: 2
    m_PVRFilteringAtrousPositionSigmaDirect: 0.5
    m_PVRFilteringAtrousPositionSigmaIndirect: 2
    m_PVRFilteringAtrousPositionSigmaAO: 1
    m_ShowResolutionOverlay: 1
  m_LightingDataAsset: {fileID: 0}
  m_UseShadowmask: 0
--- !u!196 &4
NavMeshSettings:
  serializedVersion: 2
  m_ObjectHideFlags: 0
  m_BuildSettings:
    serializedVersion: 2
    agentTypeID: 0
    agentRadius: 0.5
    agentHeight: 4
    agentSlope: 45
    agentClimb: 0.4
    ledgeDropHeight: 0
    maxJumpAcrossDistance: 0
    minRegionArea: 2
    manualCellSize: 0
    cellSize: 0.16666667
    manualTileSize: 0
    tileSize: 256
    accuratePlacement: 0
    debug:
      m_Flags: 0
  m_NavMeshData: {fileID: 23800000, guid: d8d837f44344e9c4ebc188425fe94451, type: 2}
--- !u!1 &84174426
GameObject:
  m_ObjectHideFlags: 0
  m_CorrespondingSourceObject: {fileID: 0}
  m_PrefabInternal: {fileID: 0}
  serializedVersion: 6
  m_Component:
  - component: {fileID: 84174429}
  - component: {fileID: 84174428}
  - component: {fileID: 84174427}
  m_Layer: 0
  m_Name: Terrain
  m_TagString: Untagged
  m_Icon: {fileID: 0}
  m_NavMeshLayer: 0
  m_StaticEditorFlags: 4294967295
  m_IsActive: 1
--- !u!154 &84174427
TerrainCollider:
  m_ObjectHideFlags: 0
  m_CorrespondingSourceObject: {fileID: 0}
  m_PrefabInternal: {fileID: 0}
  m_GameObject: {fileID: 84174426}
  m_Material: {fileID: 0}
  m_Enabled: 1
  m_TerrainData: {fileID: 15600000, guid: d3186e760cab5b64392765d1aaa6d62b, type: 2}
  m_EnableTreeColliders: 1
--- !u!218 &84174428
Terrain:
  m_ObjectHideFlags: 0
  m_CorrespondingSourceObject: {fileID: 0}
  m_PrefabInternal: {fileID: 0}
  m_GameObject: {fileID: 84174426}
  m_Enabled: 1
  serializedVersion: 3
  m_TerrainData: {fileID: 15600000, guid: d3186e760cab5b64392765d1aaa6d62b, type: 2}
  m_TreeDistance: 2000
  m_TreeBillboardDistance: 50
  m_TreeCrossFadeLength: 5
  m_TreeMaximumFullLODCount: 50
  m_DetailObjectDistance: 80
  m_DetailObjectDensity: 1
  m_HeightmapPixelError: 5
  m_SplatMapDistance: 1000
  m_HeightmapMaximumLOD: 0
  m_CastShadows: 1
  m_DrawHeightmap: 1
  m_DrawTreesAndFoliage: 1
  m_ReflectionProbeUsage: 1
  m_MaterialType: 0
  m_LegacySpecular:
    serializedVersion: 2
    rgba: 4286545791
  m_LegacyShininess: 0.078125
  m_MaterialTemplate: {fileID: 0}
  m_BakeLightProbesForTrees: 1
  m_PreserveTreePrototypeLayers: 0
  m_ScaleInLightmap: 0.0512
  m_LightmapParameters: {fileID: 15203, guid: 0000000000000000f000000000000000, type: 0}
--- !u!4 &84174429
Transform:
  m_ObjectHideFlags: 0
  m_CorrespondingSourceObject: {fileID: 0}
  m_PrefabInternal: {fileID: 0}
  m_GameObject: {fileID: 84174426}
  m_LocalRotation: {x: 0, y: 0, z: 0, w: 1}
  m_LocalPosition: {x: -50, y: 0, z: -50}
  m_LocalScale: {x: 1, y: 1, z: 1}
  m_Children: []
  m_Father: {fileID: 0}
  m_RootOrder: 2
  m_LocalEulerAnglesHint: {x: 0, y: 0, z: 0}
--- !u!1 &158534021
GameObject:
  m_ObjectHideFlags: 0
  m_CorrespondingSourceObject: {fileID: 0}
  m_PrefabInternal: {fileID: 0}
  serializedVersion: 6
  m_Component:
  - component: {fileID: 158534022}
  - component: {fileID: 158534025}
  - component: {fileID: 158534024}
  - component: {fileID: 158534023}
  m_Layer: 0
  m_Name: Cube (3)
  m_TagString: Untagged
  m_Icon: {fileID: 0}
  m_NavMeshLayer: 1
  m_StaticEditorFlags: 40
  m_IsActive: 1
--- !u!4 &158534022
Transform:
  m_ObjectHideFlags: 0
  m_CorrespondingSourceObject: {fileID: 0}
  m_PrefabInternal: {fileID: 0}
  m_GameObject: {fileID: 158534021}
  m_LocalRotation: {x: 0, y: 0, z: 0, w: 1}
  m_LocalPosition: {x: 11.67, y: 4.24, z: 9.88}
  m_LocalScale: {x: 2, y: 4, z: 2}
  m_Children: []
  m_Father: {fileID: 1344738717}
  m_RootOrder: 3
  m_LocalEulerAnglesHint: {x: 0, y: 0, z: 0}
--- !u!23 &158534023
MeshRenderer:
  m_ObjectHideFlags: 0
  m_CorrespondingSourceObject: {fileID: 0}
  m_PrefabInternal: {fileID: 0}
  m_GameObject: {fileID: 158534021}
  m_Enabled: 1
  m_CastShadows: 1
  m_ReceiveShadows: 1
  m_DynamicOccludee: 1
  m_MotionVectors: 1
  m_LightProbeUsage: 1
  m_ReflectionProbeUsage: 1
  m_RenderingLayerMask: 4294967295
  m_Materials:
  - {fileID: 2100000, guid: b43e5571a9fe23946bf3070cdfceb1b0, type: 2}
  m_StaticBatchInfo:
    firstSubMesh: 0
    subMeshCount: 0
  m_StaticBatchRoot: {fileID: 0}
  m_ProbeAnchor: {fileID: 0}
  m_LightProbeVolumeOverride: {fileID: 0}
  m_ScaleInLightmap: 1
  m_PreserveUVs: 1
  m_IgnoreNormalsForChartDetection: 0
  m_ImportantGI: 0
  m_StitchLightmapSeams: 0
  m_SelectedEditorRenderState: 3
  m_MinimumChartSize: 4
  m_AutoUVMaxDistance: 0.5
  m_AutoUVMaxAngle: 89
  m_LightmapParameters: {fileID: 0}
  m_SortingLayerID: 0
  m_SortingLayer: 0
  m_SortingOrder: 0
--- !u!65 &158534024
BoxCollider:
  m_ObjectHideFlags: 0
  m_CorrespondingSourceObject: {fileID: 0}
  m_PrefabInternal: {fileID: 0}
  m_GameObject: {fileID: 158534021}
  m_Material: {fileID: 0}
  m_IsTrigger: 0
  m_Enabled: 1
  serializedVersion: 2
  m_Size: {x: 1, y: 1, z: 1}
  m_Center: {x: 0, y: 0, z: 0}
--- !u!33 &158534025
MeshFilter:
  m_ObjectHideFlags: 0
  m_CorrespondingSourceObject: {fileID: 0}
  m_PrefabInternal: {fileID: 0}
  m_GameObject: {fileID: 158534021}
  m_Mesh: {fileID: 10202, guid: 0000000000000000e000000000000000, type: 0}
--- !u!1 &181818345
GameObject:
  m_ObjectHideFlags: 0
  m_CorrespondingSourceObject: {fileID: 0}
  m_PrefabInternal: {fileID: 0}
  serializedVersion: 6
  m_Component:
  - component: {fileID: 181818346}
  - component: {fileID: 181818349}
  - component: {fileID: 181818348}
  - component: {fileID: 181818347}
  m_Layer: 0
  m_Name: Cube (2)
  m_TagString: Untagged
  m_Icon: {fileID: 0}
  m_NavMeshLayer: 0
  m_StaticEditorFlags: 40
  m_IsActive: 1
--- !u!4 &181818346
Transform:
  m_ObjectHideFlags: 0
  m_CorrespondingSourceObject: {fileID: 0}
  m_PrefabInternal: {fileID: 0}
  m_GameObject: {fileID: 181818345}
  m_LocalRotation: {x: 0, y: 0, z: 0, w: 1}
  m_LocalPosition: {x: 11.67, y: 3.42, z: 12.84}
  m_LocalScale: {x: 2, y: 3, z: 2}
  m_Children: []
  m_Father: {fileID: 1344738717}
  m_RootOrder: 2
  m_LocalEulerAnglesHint: {x: 0, y: 0, z: 0}
--- !u!23 &181818347
MeshRenderer:
  m_ObjectHideFlags: 0
  m_CorrespondingSourceObject: {fileID: 0}
  m_PrefabInternal: {fileID: 0}
  m_GameObject: {fileID: 181818345}
  m_Enabled: 1
  m_CastShadows: 1
  m_ReceiveShadows: 1
  m_DynamicOccludee: 1
  m_MotionVectors: 1
  m_LightProbeUsage: 1
  m_ReflectionProbeUsage: 1
  m_RenderingLayerMask: 4294967295
  m_Materials:
  - {fileID: 2100000, guid: b43e5571a9fe23946bf3070cdfceb1b0, type: 2}
  m_StaticBatchInfo:
    firstSubMesh: 0
    subMeshCount: 0
  m_StaticBatchRoot: {fileID: 0}
  m_ProbeAnchor: {fileID: 0}
  m_LightProbeVolumeOverride: {fileID: 0}
  m_ScaleInLightmap: 1
  m_PreserveUVs: 1
  m_IgnoreNormalsForChartDetection: 0
  m_ImportantGI: 0
  m_StitchLightmapSeams: 0
  m_SelectedEditorRenderState: 3
  m_MinimumChartSize: 4
  m_AutoUVMaxDistance: 0.5
  m_AutoUVMaxAngle: 89
  m_LightmapParameters: {fileID: 0}
  m_SortingLayerID: 0
  m_SortingLayer: 0
  m_SortingOrder: 0
--- !u!65 &181818348
BoxCollider:
  m_ObjectHideFlags: 0
  m_CorrespondingSourceObject: {fileID: 0}
  m_PrefabInternal: {fileID: 0}
  m_GameObject: {fileID: 181818345}
  m_Material: {fileID: 0}
  m_IsTrigger: 0
  m_Enabled: 1
  serializedVersion: 2
  m_Size: {x: 1, y: 1, z: 1}
  m_Center: {x: 0, y: 0, z: 0}
--- !u!33 &181818349
MeshFilter:
  m_ObjectHideFlags: 0
  m_CorrespondingSourceObject: {fileID: 0}
  m_PrefabInternal: {fileID: 0}
  m_GameObject: {fileID: 181818345}
  m_Mesh: {fileID: 10202, guid: 0000000000000000e000000000000000, type: 0}
--- !u!1 &284858737
GameObject:
  m_ObjectHideFlags: 0
  m_CorrespondingSourceObject: {fileID: 0}
  m_PrefabInternal: {fileID: 0}
  serializedVersion: 6
  m_Component:
  - component: {fileID: 284858738}
  - component: {fileID: 284858740}
  - component: {fileID: 284858739}
  m_Layer: 0
  m_Name: PlayArea
  m_TagString: Untagged
  m_Icon: {fileID: 0}
  m_NavMeshLayer: 0
  m_StaticEditorFlags: 0
  m_IsActive: 1
--- !u!4 &284858738
Transform:
  m_ObjectHideFlags: 0
  m_CorrespondingSourceObject: {fileID: 0}
  m_PrefabInternal: {fileID: 0}
  m_GameObject: {fileID: 284858737}
  m_LocalRotation: {x: -0, y: -0, z: -0, w: 1}
  m_LocalPosition: {x: 0, y: 0, z: 0}
  m_LocalScale: {x: 1, y: 1, z: 1}
  m_Children: []
  m_Father: {fileID: 454710427}
  m_RootOrder: 0
  m_LocalEulerAnglesHint: {x: 0, y: 0, z: 0}
--- !u!114 &284858739
MonoBehaviour:
  m_ObjectHideFlags: 0
  m_CorrespondingSourceObject: {fileID: 0}
  m_PrefabInternal: {fileID: 0}
  m_GameObject: {fileID: 284858737}
  m_Enabled: 1
  m_EditorHideFlags: 0
  m_Script: {fileID: 11500000, guid: 377ced3493c4e1842a5b1c23f56519db, type: 3}
  m_Name: 
  m_EditorClassIdentifier: 
  blinkToColor: {r: 0, g: 0, b: 0, a: 1}
  blinkTransitionSpeed: 0.6
  distanceBlinkDelay: 0
  headsetPositionCompensation: 1
  targetListPolicy: {fileID: 0}
  navMeshLimitDistance: 0.1
  snapToNearestFloor: 1
  customRaycast: {fileID: 0}
  layersToIgnore:
    serializedVersion: 2
    m_Bits: 4
--- !u!114 &284858740
MonoBehaviour:
  m_ObjectHideFlags: 0
  m_CorrespondingSourceObject: {fileID: 0}
  m_PrefabInternal: {fileID: 0}
  m_GameObject: {fileID: 284858737}
  m_Enabled: 1
  m_EditorHideFlags: 0
  m_Script: {fileID: 11500000, guid: 174429e04b0388249a137b2dc0050b66, type: 3}
  m_Name: 
  m_EditorClassIdentifier: 
  enableTeleport: 1
  targetListPolicy: {fileID: 0}
  enableBodyCollisions: 0
  ignoreGrabbedCollisions: 1
  ignoreCollisionsWith: []
  headsetYOffset: 0.2
  movementThreshold: 0.0015
  playAreaMovementThreshold: 0.00075
  standingHistorySamples: 5
  leanYThreshold: 0.5
  stepUpYOffset: 0.15
  stepThicknessMultiplier: 0.5
  stepDropThreshold: 0.08
  customRaycast: {fileID: 0}
  layersToIgnore:
    serializedVersion: 2
    m_Bits: 4
  fallRestriction: 0
  gravityFallYThreshold: 1
  blinkYThreshold: 0.15
  floorHeightTolerance: 0.001
  fallCheckPrecision: 5
  teleporter: {fileID: 0}
  customBodyColliderContainer: {fileID: 0}
  customFootColliderContainer: {fileID: 0}
--- !u!1 &454710426
GameObject:
  m_ObjectHideFlags: 0
  m_CorrespondingSourceObject: {fileID: 0}
  m_PrefabInternal: {fileID: 0}
  serializedVersion: 6
  m_Component:
  - component: {fileID: 454710427}
  m_Layer: 0
  m_Name: '[VRTK_Scripts]'
  m_TagString: Untagged
  m_Icon: {fileID: 0}
  m_NavMeshLayer: 0
  m_StaticEditorFlags: 0
  m_IsActive: 1
--- !u!4 &454710427
Transform:
  m_ObjectHideFlags: 0
  m_CorrespondingSourceObject: {fileID: 0}
  m_PrefabInternal: {fileID: 0}
  m_GameObject: {fileID: 454710426}
  m_LocalRotation: {x: 0, y: 0, z: 0, w: 1}
  m_LocalPosition: {x: 0, y: 0, z: 0}
  m_LocalScale: {x: 1, y: 1, z: 1}
  m_Children:
  - {fileID: 284858738}
  - {fileID: 807325092}
  - {fileID: 927287136}
  m_Father: {fileID: 0}
  m_RootOrder: 5
  m_LocalEulerAnglesHint: {x: 0, y: 0, z: 0}
--- !u!1 &533658591
GameObject:
  m_ObjectHideFlags: 0
  m_CorrespondingSourceObject: {fileID: 0}
  m_PrefabInternal: {fileID: 0}
  serializedVersion: 6
  m_Component:
  - component: {fileID: 533658595}
  - component: {fileID: 533658594}
  - component: {fileID: 533658593}
  - component: {fileID: 533658592}
  m_Layer: 0
  m_Name: Cube
  m_TagString: Untagged
  m_Icon: {fileID: 0}
  m_NavMeshLayer: 1
  m_StaticEditorFlags: 40
  m_IsActive: 1
--- !u!23 &533658592
MeshRenderer:
  m_ObjectHideFlags: 0
  m_CorrespondingSourceObject: {fileID: 0}
  m_PrefabInternal: {fileID: 0}
  m_GameObject: {fileID: 533658591}
  m_Enabled: 1
  m_CastShadows: 1
  m_ReceiveShadows: 1
  m_DynamicOccludee: 1
  m_MotionVectors: 1
  m_LightProbeUsage: 1
  m_ReflectionProbeUsage: 1
  m_RenderingLayerMask: 4294967295
  m_Materials:
  - {fileID: 2100000, guid: b43e5571a9fe23946bf3070cdfceb1b0, type: 2}
  m_StaticBatchInfo:
    firstSubMesh: 0
    subMeshCount: 0
  m_StaticBatchRoot: {fileID: 0}
  m_ProbeAnchor: {fileID: 0}
  m_LightProbeVolumeOverride: {fileID: 0}
  m_ScaleInLightmap: 1
  m_PreserveUVs: 1
  m_IgnoreNormalsForChartDetection: 0
  m_ImportantGI: 0
  m_StitchLightmapSeams: 0
  m_SelectedEditorRenderState: 3
  m_MinimumChartSize: 4
  m_AutoUVMaxDistance: 0.5
  m_AutoUVMaxAngle: 89
  m_LightmapParameters: {fileID: 0}
  m_SortingLayerID: 0
  m_SortingLayer: 0
  m_SortingOrder: 0
--- !u!65 &533658593
BoxCollider:
  m_ObjectHideFlags: 0
  m_CorrespondingSourceObject: {fileID: 0}
  m_PrefabInternal: {fileID: 0}
  m_GameObject: {fileID: 533658591}
  m_Material: {fileID: 0}
  m_IsTrigger: 0
  m_Enabled: 1
  serializedVersion: 2
  m_Size: {x: 1, y: 1, z: 1}
  m_Center: {x: 0, y: 0, z: 0}
--- !u!33 &533658594
MeshFilter:
  m_ObjectHideFlags: 0
  m_CorrespondingSourceObject: {fileID: 0}
  m_PrefabInternal: {fileID: 0}
  m_GameObject: {fileID: 533658591}
  m_Mesh: {fileID: 10202, guid: 0000000000000000e000000000000000, type: 0}
--- !u!4 &533658595
Transform:
  m_ObjectHideFlags: 0
  m_CorrespondingSourceObject: {fileID: 0}
  m_PrefabInternal: {fileID: 0}
  m_GameObject: {fileID: 533658591}
  m_LocalRotation: {x: 0, y: 0, z: 0, w: 1}
  m_LocalPosition: {x: 3, y: 1, z: 2}
  m_LocalScale: {x: 2, y: 1, z: 2}
  m_Children: []
  m_Father: {fileID: 1344738717}
  m_RootOrder: 0
  m_LocalEulerAnglesHint: {x: 0, y: 0, z: 0}
--- !u!1 &807325089
GameObject:
  m_ObjectHideFlags: 0
  m_CorrespondingSourceObject: {fileID: 0}
  m_PrefabInternal: {fileID: 0}
  serializedVersion: 6
  m_Component:
  - component: {fileID: 807325092}
  - component: {fileID: 807325091}
  - component: {fileID: 807325093}
  - component: {fileID: 807325090}
  m_Layer: 0
  m_Name: LeftController
  m_TagString: Untagged
  m_Icon: {fileID: 0}
  m_NavMeshLayer: 0
  m_StaticEditorFlags: 0
  m_IsActive: 1
--- !u!114 &807325090
MonoBehaviour:
  m_ObjectHideFlags: 0
  m_CorrespondingSourceObject: {fileID: 0}
  m_PrefabInternal: {fileID: 0}
  m_GameObject: {fileID: 807325089}
  m_Enabled: 1
  m_EditorHideFlags: 0
  m_Script: {fileID: 11500000, guid: 7fc65878c7102524bb8c2bcfbefff497, type: 3}
  m_Name: 
  m_EditorClassIdentifier: 
  playareaCursor: {fileID: 0}
  directionIndicator: {fileID: 0}
  customRaycast: {fileID: 0}
  layersToIgnore:
    serializedVersion: 2
    m_Bits: 4
  pointerOriginSmoothingSettings:
    smoothsPosition: 0
    maxAllowedPerFrameDistanceDifference: 0.003
    smoothsRotation: 0
    maxAllowedPerFrameAngleDifference: 1.5
  validCollisionColor: {r: 0, g: 0.49803922, b: 0, a: 1}
  invalidCollisionColor: {r: 0.8, g: 0, b: 0, a: 1}
  tracerVisibility: 0
  cursorVisibility: 0
  maximumLength: 100
  scaleFactor: 0.002
  cursorScaleMultiplier: 25
  cursorMatchTargetRotation: 0
  cursorDistanceRescale: 0
  maximumCursorScale: {x: Infinity, y: Infinity, z: Infinity}
  customTracer: {fileID: 0}
  customCursor: {fileID: 0}
--- !u!114 &807325091
MonoBehaviour:
  m_ObjectHideFlags: 0
  m_CorrespondingSourceObject: {fileID: 0}
  m_PrefabInternal: {fileID: 0}
  m_GameObject: {fileID: 807325089}
  m_Enabled: 1
  m_EditorHideFlags: 0
  m_Script: {fileID: 11500000, guid: eba3cd5456cd79e49948f5ceb58544b4, type: 3}
  m_Name: 
  m_EditorClassIdentifier: 
  pointerToggleButton: 10
  pointerSetButton: 10
  grabToggleButton: 7
  useToggleButton: 3
  uiClickButton: 3
  menuToggleButton: 14
  axisFidelity: 1
  triggerClickThreshold: 1
  triggerForceZeroThreshold: 0.01
  triggerAxisZeroOnUntouch: 0
  gripClickThreshold: 1
  gripForceZeroThreshold: 0.01
  gripAxisZeroOnUntouch: 0
  triggerPressed: 0
  triggerTouched: 0
  triggerHairlinePressed: 0
  triggerClicked: 0
  triggerAxisChanged: 0
  gripPressed: 0
  gripTouched: 0
  gripHairlinePressed: 0
  gripClicked: 0
  gripAxisChanged: 0
  touchpadPressed: 0
  touchpadTouched: 0
  touchpadAxisChanged: 0
  buttonOnePressed: 0
  buttonOneTouched: 0
  buttonTwoPressed: 0
  buttonTwoTouched: 0
  startMenuPressed: 0
  pointerPressed: 0
  grabPressed: 0
  usePressed: 0
  uiClickPressed: 0
  menuPressed: 0
  controllerVisible: 1
--- !u!4 &807325092
Transform:
  m_ObjectHideFlags: 0
  m_CorrespondingSourceObject: {fileID: 0}
  m_PrefabInternal: {fileID: 0}
  m_GameObject: {fileID: 807325089}
  m_LocalRotation: {x: -0, y: -0, z: -0, w: 1}
  m_LocalPosition: {x: 0, y: 0, z: 0}
  m_LocalScale: {x: 1, y: 1, z: 1}
  m_Children: []
  m_Father: {fileID: 454710427}
  m_RootOrder: 1
  m_LocalEulerAnglesHint: {x: 0, y: 0, z: 0}
--- !u!114 &807325093
MonoBehaviour:
  m_ObjectHideFlags: 0
  m_CorrespondingSourceObject: {fileID: 0}
  m_PrefabInternal: {fileID: 0}
  m_GameObject: {fileID: 807325089}
  m_Enabled: 1
  m_EditorHideFlags: 0
  m_Script: {fileID: 11500000, guid: 0ec704cceb26f6f49b6c900fc83d8d18, type: 3}
  m_Name: 
  m_EditorClassIdentifier: 
  enableTeleport: 1
  targetListPolicy: {fileID: 0}
  pointerRenderer: {fileID: 807325090}
  activationButton: 10
  holdButtonToActivate: 1
  activateOnEnable: 0
  activationDelay: 0
  selectionButton: 10
  selectOnPress: 0
  selectionDelay: 0
  selectAfterHoverDuration: 0
  interactWithObjects: 0
  grabToPointerTip: 0
  controller: {fileID: 0}
  interactUse: {fileID: 0}
  customOrigin: {fileID: 0}
--- !u!1 &927287133
GameObject:
  m_ObjectHideFlags: 0
  m_CorrespondingSourceObject: {fileID: 0}
  m_PrefabInternal: {fileID: 0}
  serializedVersion: 6
  m_Component:
  - component: {fileID: 927287136}
  - component: {fileID: 927287135}
  - component: {fileID: 927287137}
  - component: {fileID: 927287134}
  m_Layer: 0
  m_Name: RightController
  m_TagString: Untagged
  m_Icon: {fileID: 0}
  m_NavMeshLayer: 0
  m_StaticEditorFlags: 0
  m_IsActive: 1
--- !u!114 &927287134
MonoBehaviour:
  m_ObjectHideFlags: 0
  m_CorrespondingSourceObject: {fileID: 0}
  m_PrefabInternal: {fileID: 0}
  m_GameObject: {fileID: 927287133}
  m_Enabled: 1
  m_EditorHideFlags: 0
  m_Script: {fileID: 11500000, guid: bd904f4ca6767424eaf8e050bc174741, type: 3}
  m_Name: 
  m_EditorClassIdentifier: 
  playareaCursor: {fileID: 0}
  directionIndicator: {fileID: 0}
  customRaycast: {fileID: 0}
  layersToIgnore:
    serializedVersion: 2
    m_Bits: 4
  pointerOriginSmoothingSettings:
    smoothsPosition: 0
    maxAllowedPerFrameDistanceDifference: 0.003
    smoothsRotation: 0
    maxAllowedPerFrameAngleDifference: 1.5
  validCollisionColor: {r: 0, g: 0.49803922, b: 0, a: 1}
  invalidCollisionColor: {r: 0.8, g: 0, b: 0, a: 1}
  tracerVisibility: 0
  cursorVisibility: 0
  maximumLength: {x: 10, y: Infinity}
  tracerDensity: 10
  cursorRadius: 0.5
  heightLimitAngle: 100
  curveOffset: 1
  rescaleTracer: 0
  cursorMatchTargetRotation: 1
  collisionCheckFrequency: 0
  customTracer: {fileID: 0}
  customCursor: {fileID: 0}
  validLocationObject: {fileID: 0}
  invalidLocationObject: {fileID: 0}
--- !u!114 &927287135
MonoBehaviour:
  m_ObjectHideFlags: 0
  m_CorrespondingSourceObject: {fileID: 0}
  m_PrefabInternal: {fileID: 0}
  m_GameObject: {fileID: 927287133}
  m_Enabled: 1
  m_EditorHideFlags: 0
  m_Script: {fileID: 11500000, guid: eba3cd5456cd79e49948f5ceb58544b4, type: 3}
  m_Name: 
  m_EditorClassIdentifier: 
  pointerToggleButton: 10
  pointerSetButton: 10
  grabToggleButton: 7
  useToggleButton: 3
  uiClickButton: 3
  menuToggleButton: 14
  axisFidelity: 1
  triggerClickThreshold: 1
  triggerForceZeroThreshold: 0.01
  triggerAxisZeroOnUntouch: 0
  gripClickThreshold: 1
  gripForceZeroThreshold: 0.01
  gripAxisZeroOnUntouch: 0
  triggerPressed: 0
  triggerTouched: 0
  triggerHairlinePressed: 0
  triggerClicked: 0
  triggerAxisChanged: 0
  gripPressed: 0
  gripTouched: 0
  gripHairlinePressed: 0
  gripClicked: 0
  gripAxisChanged: 0
  touchpadPressed: 0
  touchpadTouched: 0
  touchpadAxisChanged: 0
  buttonOnePressed: 0
  buttonOneTouched: 0
  buttonTwoPressed: 0
  buttonTwoTouched: 0
  startMenuPressed: 0
  pointerPressed: 0
  grabPressed: 0
  usePressed: 0
  uiClickPressed: 0
  menuPressed: 0
  controllerVisible: 1
--- !u!4 &927287136
Transform:
  m_ObjectHideFlags: 0
  m_CorrespondingSourceObject: {fileID: 0}
  m_PrefabInternal: {fileID: 0}
  m_GameObject: {fileID: 927287133}
  m_LocalRotation: {x: -0, y: -0, z: -0, w: 1}
  m_LocalPosition: {x: 0, y: 0, z: 0}
  m_LocalScale: {x: 1, y: 1, z: 1}
  m_Children: []
  m_Father: {fileID: 454710427}
  m_RootOrder: 2
  m_LocalEulerAnglesHint: {x: 0, y: 0, z: 0}
--- !u!114 &927287137
MonoBehaviour:
  m_ObjectHideFlags: 0
  m_CorrespondingSourceObject: {fileID: 0}
  m_PrefabInternal: {fileID: 0}
  m_GameObject: {fileID: 927287133}
  m_Enabled: 1
  m_EditorHideFlags: 0
  m_Script: {fileID: 11500000, guid: 0ec704cceb26f6f49b6c900fc83d8d18, type: 3}
  m_Name: 
  m_EditorClassIdentifier: 
  enableTeleport: 1
  targetListPolicy: {fileID: 0}
  pointerRenderer: {fileID: 927287134}
  activationButton: 10
  holdButtonToActivate: 1
  activateOnEnable: 0
  activationDelay: 0
  selectionButton: 10
  selectOnPress: 0
  selectionDelay: 0
  selectAfterHoverDuration: 0
  interactWithObjects: 0
  grabToPointerTip: 0
  controller: {fileID: 0}
  interactUse: {fileID: 0}
  customOrigin: {fileID: 0}
--- !u!1 &1011430510
GameObject:
  m_ObjectHideFlags: 0
  m_CorrespondingSourceObject: {fileID: 0}
  m_PrefabInternal: {fileID: 0}
  serializedVersion: 6
  m_Component:
  - component: {fileID: 1011430511}
  m_Layer: 0
  m_Name: '[ExampleSceneScripts]'
  m_TagString: Untagged
  m_Icon: {fileID: 0}
  m_NavMeshLayer: 0
  m_StaticEditorFlags: 0
  m_IsActive: 1
--- !u!4 &1011430511
Transform:
  m_ObjectHideFlags: 0
  m_CorrespondingSourceObject: {fileID: 0}
  m_PrefabInternal: {fileID: 0}
  m_GameObject: {fileID: 1011430510}
  m_LocalRotation: {x: 0, y: 0, z: 0, w: 1}
  m_LocalPosition: {x: 0, y: 0, z: 0}
  m_LocalScale: {x: 1, y: 1, z: 1}
  m_Children:
  - {fileID: 1284134038}
  m_Father: {fileID: 0}
  m_RootOrder: 6
  m_LocalEulerAnglesHint: {x: 0, y: 0, z: 0}
--- !u!1001 &1107519339
Prefab:
  m_ObjectHideFlags: 0
  serializedVersion: 2
  m_Modification:
    m_TransformParent: {fileID: 1504748442}
    m_Modifications:
    - target: {fileID: 4000011368645488, guid: 41c0760bd81dd084283814f0c432b466, type: 2}
      propertyPath: m_LocalPosition.x
      value: 0
      objectReference: {fileID: 0}
    - target: {fileID: 4000011368645488, guid: 41c0760bd81dd084283814f0c432b466, type: 2}
      propertyPath: m_LocalPosition.y
      value: 0
      objectReference: {fileID: 0}
    - target: {fileID: 4000011368645488, guid: 41c0760bd81dd084283814f0c432b466, type: 2}
      propertyPath: m_LocalPosition.z
      value: 0
      objectReference: {fileID: 0}
    - target: {fileID: 4000011368645488, guid: 41c0760bd81dd084283814f0c432b466, type: 2}
      propertyPath: m_LocalRotation.x
      value: 0
      objectReference: {fileID: 0}
    - target: {fileID: 4000011368645488, guid: 41c0760bd81dd084283814f0c432b466, type: 2}
      propertyPath: m_LocalRotation.y
      value: 0
      objectReference: {fileID: 0}
    - target: {fileID: 4000011368645488, guid: 41c0760bd81dd084283814f0c432b466, type: 2}
      propertyPath: m_LocalRotation.z
      value: 0
      objectReference: {fileID: 0}
    - target: {fileID: 4000011368645488, guid: 41c0760bd81dd084283814f0c432b466, type: 2}
      propertyPath: m_LocalRotation.w
      value: 1
      objectReference: {fileID: 0}
    - target: {fileID: 4000011368645488, guid: 41c0760bd81dd084283814f0c432b466, type: 2}
      propertyPath: m_RootOrder
      value: 0
      objectReference: {fileID: 0}
    - target: {fileID: 4000013811099478, guid: 41c0760bd81dd084283814f0c432b466, type: 2}
      propertyPath: m_LocalPosition.y
      value: -0.5
      objectReference: {fileID: 0}
    - target: {fileID: 114000010315091656, guid: 41c0760bd81dd084283814f0c432b466,
        type: 2}
      propertyPath: actualBoundaries
      value: 
      objectReference: {fileID: 0}
    - target: {fileID: 114000010315091656, guid: 41c0760bd81dd084283814f0c432b466,
        type: 2}
      propertyPath: actualHeadset
      value: 
      objectReference: {fileID: 0}
    - target: {fileID: 114000010315091656, guid: 41c0760bd81dd084283814f0c432b466,
        type: 2}
      propertyPath: actualLeftController
      value: 
      objectReference: {fileID: 0}
    - target: {fileID: 114000010315091656, guid: 41c0760bd81dd084283814f0c432b466,
        type: 2}
      propertyPath: actualRightController
      value: 
      objectReference: {fileID: 0}
    - target: {fileID: 114000010315091656, guid: 41c0760bd81dd084283814f0c432b466,
        type: 2}
      propertyPath: modelAliasLeftController
      value: 
      objectReference: {fileID: 0}
    - target: {fileID: 114000010315091656, guid: 41c0760bd81dd084283814f0c432b466,
        type: 2}
      propertyPath: modelAliasRightController
      value: 
      objectReference: {fileID: 0}
    m_RemovedComponents: []
  m_SourcePrefab: {fileID: 100100000, guid: 41c0760bd81dd084283814f0c432b466, type: 2}
  m_IsPrefabAsset: 0
--- !u!114 &1107519340 stripped
MonoBehaviour:
  m_CorrespondingSourceObject: {fileID: 114000010035616626, guid: 41c0760bd81dd084283814f0c432b466,
    type: 2}
  m_PrefabInternal: {fileID: 1107519339}
  m_Script: {fileID: 11500000, guid: eeda6d41317f444b900e374895f14e95, type: 3}
--- !u!4 &1107519341 stripped
Transform:
  m_CorrespondingSourceObject: {fileID: 4000011368645488, guid: 41c0760bd81dd084283814f0c432b466,
    type: 2}
  m_PrefabInternal: {fileID: 1107519339}
--- !u!114 &1107519342 stripped
MonoBehaviour:
  m_CorrespondingSourceObject: {fileID: 114000012492157348, guid: 41c0760bd81dd084283814f0c432b466,
    type: 2}
  m_PrefabInternal: {fileID: 1107519339}
  m_Script: {fileID: 11500000, guid: eeda6d41317f444b900e374895f14e95, type: 3}
--- !u!114 &1107519343 stripped
MonoBehaviour:
  m_CorrespondingSourceObject: {fileID: 114000013910691454, guid: 41c0760bd81dd084283814f0c432b466,
    type: 2}
  m_PrefabInternal: {fileID: 1107519339}
  m_Script: {fileID: 11500000, guid: eeda6d41317f444b900e374895f14e95, type: 3}
--- !u!114 &1107519344 stripped
MonoBehaviour:
  m_CorrespondingSourceObject: {fileID: 114000010315091656, guid: 41c0760bd81dd084283814f0c432b466,
    type: 2}
  m_PrefabInternal: {fileID: 1107519339}
  m_Script: {fileID: 11500000, guid: eeda6d41317f444b900e374895f14e95, type: 3}
--- !u!114 &1107519345 stripped
MonoBehaviour:
  m_CorrespondingSourceObject: {fileID: 114000013615672388, guid: 41c0760bd81dd084283814f0c432b466,
    type: 2}
  m_PrefabInternal: {fileID: 1107519339}
  m_Script: {fileID: 11500000, guid: eeda6d41317f444b900e374895f14e95, type: 3}
--- !u!1 &1284134037
GameObject:
  m_ObjectHideFlags: 0
  m_CorrespondingSourceObject: {fileID: 0}
  m_PrefabInternal: {fileID: 0}
  serializedVersion: 6
  m_Component:
  - component: {fileID: 1284134038}
  - component: {fileID: 1284134039}
  m_Layer: 0
  m_Name: '##Scene Changer##'
  m_TagString: Untagged
  m_Icon: {fileID: 0}
  m_NavMeshLayer: 0
  m_StaticEditorFlags: 0
  m_IsActive: 1
--- !u!4 &1284134038
Transform:
  m_ObjectHideFlags: 0
  m_CorrespondingSourceObject: {fileID: 0}
  m_PrefabInternal: {fileID: 0}
  m_GameObject: {fileID: 1284134037}
  m_LocalRotation: {x: -0, y: -0, z: -0, w: 1}
  m_LocalPosition: {x: 0, y: 0, z: 0}
  m_LocalScale: {x: 1, y: 1, z: 1}
  m_Children: []
  m_Father: {fileID: 1011430511}
  m_RootOrder: 0
  m_LocalEulerAnglesHint: {x: 0, y: 0, z: 0}
--- !u!114 &1284134039
MonoBehaviour:
  m_ObjectHideFlags: 0
  m_CorrespondingSourceObject: {fileID: 0}
  m_PrefabInternal: {fileID: 0}
  m_GameObject: {fileID: 1284134037}
  m_Enabled: 1
  m_EditorHideFlags: 0
  m_Script: {fileID: 11500000, guid: c63141da60241d14394f8f3b547531f0, type: 3}
  m_Name: 
  m_EditorClassIdentifier: 
--- !u!1 &1344738716
GameObject:
  m_ObjectHideFlags: 0
  m_CorrespondingSourceObject: {fileID: 0}
  m_PrefabInternal: {fileID: 0}
  serializedVersion: 6
  m_Component:
  - component: {fileID: 1344738717}
  m_Layer: 0
  m_Name: ExampleWorldObjects
  m_TagString: Untagged
  m_Icon: {fileID: 0}
  m_NavMeshLayer: 0
  m_StaticEditorFlags: 0
  m_IsActive: 1
--- !u!4 &1344738717
Transform:
  m_ObjectHideFlags: 0
  m_CorrespondingSourceObject: {fileID: 0}
  m_PrefabInternal: {fileID: 0}
  m_GameObject: {fileID: 1344738716}
  m_LocalRotation: {x: 0, y: 0, z: 0, w: 1}
  m_LocalPosition: {x: 0, y: 0, z: 0}
  m_LocalScale: {x: 1, y: 1, z: 1}
  m_Children:
  - {fileID: 533658595}
  - {fileID: 1534876643}
  - {fileID: 181818346}
  - {fileID: 158534022}
  m_Father: {fileID: 0}
  m_RootOrder: 3
  m_LocalEulerAnglesHint: {x: 0, y: 0, z: 0}
--- !u!1 &1504748440
GameObject:
  m_ObjectHideFlags: 0
  m_CorrespondingSourceObject: {fileID: 0}
  m_PrefabInternal: {fileID: 0}
  serializedVersion: 6
  m_Component:
  - component: {fileID: 1504748442}
  - component: {fileID: 1504748441}
  m_Layer: 0
  m_Name: '[VRTK_SDKManager]'
  m_TagString: Untagged
  m_Icon: {fileID: 0}
  m_NavMeshLayer: 0
  m_StaticEditorFlags: 0
  m_IsActive: 1
--- !u!114 &1504748441
MonoBehaviour:
  m_ObjectHideFlags: 0
  m_CorrespondingSourceObject: {fileID: 0}
  m_PrefabInternal: {fileID: 0}
  m_GameObject: {fileID: 1504748440}
  m_Enabled: 1
  m_EditorHideFlags: 0
  m_Script: {fileID: 11500000, guid: 5837af0260a118e4d808bfe0405429a1, type: 3}
  m_Name: 
  m_EditorClassIdentifier: 
  persistOnLoad: 0
  autoManageScriptDefines: 1
  activeScriptingDefineSymbolsWithoutSDKClasses:
  - symbol: VRTK_DEFINE_SDK_OCULUS_AVATAR
    buildTargetGroupName: Standalone
  scriptAliasLeftController: {fileID: 807325089}
  scriptAliasRightController: {fileID: 927287133}
  autoManageVRSettings: 1
  autoLoadSetup: 1
  setups:
  - {fileID: 1107519345}
  - {fileID: 1107519344}
  - {fileID: 1107519343}
  - {fileID: 1107519342}
  - {fileID: 1107519340}
--- !u!4 &1504748442
Transform:
  m_ObjectHideFlags: 0
  m_CorrespondingSourceObject: {fileID: 0}
  m_PrefabInternal: {fileID: 0}
  m_GameObject: {fileID: 1504748440}
  m_LocalRotation: {x: 0, y: 0, z: 0, w: 1}
  m_LocalPosition: {x: 0, y: 0, z: 0}
  m_LocalScale: {x: 1, y: 1, z: 1}
  m_Children:
  - {fileID: 1107519341}
  - {fileID: 1545150381}
  m_Father: {fileID: 0}
  m_RootOrder: 4
  m_LocalEulerAnglesHint: {x: 0, y: 0, z: 0}
--- !u!1 &1534876639
GameObject:
  m_ObjectHideFlags: 0
  m_CorrespondingSourceObject: {fileID: 0}
  m_PrefabInternal: {fileID: 0}
  serializedVersion: 6
  m_Component:
  - component: {fileID: 1534876643}
  - component: {fileID: 1534876642}
  - component: {fileID: 1534876641}
  - component: {fileID: 1534876640}
  m_Layer: 0
  m_Name: Cube (1)
  m_TagString: Untagged
  m_Icon: {fileID: 0}
  m_NavMeshLayer: 0
  m_StaticEditorFlags: 40
  m_IsActive: 1
--- !u!23 &1534876640
MeshRenderer:
  m_ObjectHideFlags: 0
  m_CorrespondingSourceObject: {fileID: 0}
  m_PrefabInternal: {fileID: 0}
  m_GameObject: {fileID: 1534876639}
  m_Enabled: 1
  m_CastShadows: 1
  m_ReceiveShadows: 1
  m_DynamicOccludee: 1
  m_MotionVectors: 1
  m_LightProbeUsage: 1
  m_ReflectionProbeUsage: 1
  m_RenderingLayerMask: 4294967295
  m_Materials:
  - {fileID: 2100000, guid: b43e5571a9fe23946bf3070cdfceb1b0, type: 2}
  m_StaticBatchInfo:
    firstSubMesh: 0
    subMeshCount: 0
  m_StaticBatchRoot: {fileID: 0}
  m_ProbeAnchor: {fileID: 0}
  m_LightProbeVolumeOverride: {fileID: 0}
  m_ScaleInLightmap: 1
  m_PreserveUVs: 1
  m_IgnoreNormalsForChartDetection: 0
  m_ImportantGI: 0
  m_StitchLightmapSeams: 0
  m_SelectedEditorRenderState: 3
  m_MinimumChartSize: 4
  m_AutoUVMaxDistance: 0.5
  m_AutoUVMaxAngle: 89
  m_LightmapParameters: {fileID: 0}
  m_SortingLayerID: 0
  m_SortingLayer: 0
  m_SortingOrder: 0
--- !u!65 &1534876641
BoxCollider:
  m_ObjectHideFlags: 0
  m_CorrespondingSourceObject: {fileID: 0}
  m_PrefabInternal: {fileID: 0}
  m_GameObject: {fileID: 1534876639}
  m_Material: {fileID: 0}
  m_IsTrigger: 0
  m_Enabled: 1
  serializedVersion: 2
  m_Size: {x: 1, y: 1, z: 1}
  m_Center: {x: 0, y: 0, z: 0}
--- !u!33 &1534876642
MeshFilter:
  m_ObjectHideFlags: 0
  m_CorrespondingSourceObject: {fileID: 0}
  m_PrefabInternal: {fileID: 0}
  m_GameObject: {fileID: 1534876639}
  m_Mesh: {fileID: 10202, guid: 0000000000000000e000000000000000, type: 0}
--- !u!4 &1534876643
Transform:
  m_ObjectHideFlags: 0
  m_CorrespondingSourceObject: {fileID: 0}
  m_PrefabInternal: {fileID: 0}
  m_GameObject: {fileID: 1534876639}
  m_LocalRotation: {x: 0, y: 0, z: 0, w: 1}
  m_LocalPosition: {x: 3, y: 1, z: 5}
  m_LocalScale: {x: 2, y: 3, z: 2}
  m_Children: []
  m_Father: {fileID: 1344738717}
  m_RootOrder: 1
  m_LocalEulerAnglesHint: {x: 0, y: 0, z: 0}
--- !u!1001 &1545150380
Prefab:
  m_ObjectHideFlags: 0
  serializedVersion: 2
  m_Modification:
    m_TransformParent: {fileID: 1504748442}
    m_Modifications:
    - target: {fileID: 224000013127654674, guid: d46cf6b1ad9d84a48ae7548a2a6b41b3,
        type: 2}
      propertyPath: m_LocalPosition.x
      value: 0
      objectReference: {fileID: 0}
    - target: {fileID: 224000013127654674, guid: d46cf6b1ad9d84a48ae7548a2a6b41b3,
        type: 2}
      propertyPath: m_LocalPosition.y
      value: 0
      objectReference: {fileID: 0}
    - target: {fileID: 224000013127654674, guid: d46cf6b1ad9d84a48ae7548a2a6b41b3,
        type: 2}
      propertyPath: m_LocalPosition.z
      value: 0
      objectReference: {fileID: 0}
    - target: {fileID: 224000013127654674, guid: d46cf6b1ad9d84a48ae7548a2a6b41b3,
        type: 2}
      propertyPath: m_LocalRotation.x
      value: 0
      objectReference: {fileID: 0}
    - target: {fileID: 224000013127654674, guid: d46cf6b1ad9d84a48ae7548a2a6b41b3,
        type: 2}
      propertyPath: m_LocalRotation.y
      value: 0
      objectReference: {fileID: 0}
    - target: {fileID: 224000013127654674, guid: d46cf6b1ad9d84a48ae7548a2a6b41b3,
        type: 2}
      propertyPath: m_LocalRotation.z
      value: 0
      objectReference: {fileID: 0}
    - target: {fileID: 224000013127654674, guid: d46cf6b1ad9d84a48ae7548a2a6b41b3,
        type: 2}
      propertyPath: m_LocalRotation.w
      value: 1
      objectReference: {fileID: 0}
    - target: {fileID: 224000013127654674, guid: d46cf6b1ad9d84a48ae7548a2a6b41b3,
        type: 2}
      propertyPath: m_RootOrder
      value: 1
      objectReference: {fileID: 0}
    - target: {fileID: 224000013127654674, guid: d46cf6b1ad9d84a48ae7548a2a6b41b3,
        type: 2}
      propertyPath: m_AnchoredPosition.x
      value: 0
      objectReference: {fileID: 0}
    - target: {fileID: 224000013127654674, guid: d46cf6b1ad9d84a48ae7548a2a6b41b3,
        type: 2}
      propertyPath: m_AnchoredPosition.y
      value: 0
      objectReference: {fileID: 0}
    - target: {fileID: 224000013127654674, guid: d46cf6b1ad9d84a48ae7548a2a6b41b3,
        type: 2}
      propertyPath: m_SizeDelta.x
      value: 0
      objectReference: {fileID: 0}
    - target: {fileID: 224000013127654674, guid: d46cf6b1ad9d84a48ae7548a2a6b41b3,
        type: 2}
      propertyPath: m_SizeDelta.y
      value: 0
      objectReference: {fileID: 0}
    - target: {fileID: 224000013127654674, guid: d46cf6b1ad9d84a48ae7548a2a6b41b3,
        type: 2}
      propertyPath: m_AnchorMin.x
      value: 0
      objectReference: {fileID: 0}
    - target: {fileID: 224000013127654674, guid: d46cf6b1ad9d84a48ae7548a2a6b41b3,
        type: 2}
      propertyPath: m_AnchorMin.y
      value: 0
      objectReference: {fileID: 0}
    - target: {fileID: 224000013127654674, guid: d46cf6b1ad9d84a48ae7548a2a6b41b3,
        type: 2}
      propertyPath: m_AnchorMax.x
      value: 0
      objectReference: {fileID: 0}
    - target: {fileID: 224000013127654674, guid: d46cf6b1ad9d84a48ae7548a2a6b41b3,
        type: 2}
      propertyPath: m_AnchorMax.y
      value: 0
      objectReference: {fileID: 0}
    - target: {fileID: 224000013127654674, guid: d46cf6b1ad9d84a48ae7548a2a6b41b3,
        type: 2}
      propertyPath: m_Pivot.x
      value: 0
      objectReference: {fileID: 0}
    - target: {fileID: 224000013127654674, guid: d46cf6b1ad9d84a48ae7548a2a6b41b3,
        type: 2}
      propertyPath: m_Pivot.y
      value: 0
      objectReference: {fileID: 0}
    - target: {fileID: 224000013127654674, guid: d46cf6b1ad9d84a48ae7548a2a6b41b3,
        type: 2}
      propertyPath: m_LocalScale.x
      value: 0
      objectReference: {fileID: 0}
    - target: {fileID: 224000013127654674, guid: d46cf6b1ad9d84a48ae7548a2a6b41b3,
        type: 2}
      propertyPath: m_LocalScale.y
      value: 0
      objectReference: {fileID: 0}
    - target: {fileID: 224000013127654674, guid: d46cf6b1ad9d84a48ae7548a2a6b41b3,
        type: 2}
      propertyPath: m_LocalScale.z
      value: 0
      objectReference: {fileID: 0}
    - target: {fileID: 224000012326194302, guid: d46cf6b1ad9d84a48ae7548a2a6b41b3,
        type: 2}
      propertyPath: m_AnchorMin.y
      value: 1
      objectReference: {fileID: 0}
    - target: {fileID: 224000012326194302, guid: d46cf6b1ad9d84a48ae7548a2a6b41b3,
        type: 2}
      propertyPath: m_AnchorMax.y
      value: 1
      objectReference: {fileID: 0}
    - target: {fileID: 224000012326194302, guid: d46cf6b1ad9d84a48ae7548a2a6b41b3,
        type: 2}
      propertyPath: m_AnchoredPosition.x
      value: 62
      objectReference: {fileID: 0}
    - target: {fileID: 224000012326194302, guid: d46cf6b1ad9d84a48ae7548a2a6b41b3,
        type: 2}
      propertyPath: m_AnchoredPosition.y
      value: -11
      objectReference: {fileID: 0}
    - target: {fileID: 224000012326194302, guid: d46cf6b1ad9d84a48ae7548a2a6b41b3,
        type: 2}
      propertyPath: m_SizeDelta.x
      value: 114
      objectReference: {fileID: 0}
    - target: {fileID: 224000012326194302, guid: d46cf6b1ad9d84a48ae7548a2a6b41b3,
        type: 2}
      propertyPath: m_SizeDelta.y
      value: 16
      objectReference: {fileID: 0}
    - target: {fileID: 224000012859001416, guid: d46cf6b1ad9d84a48ae7548a2a6b41b3,
        type: 2}
      propertyPath: m_AnchorMin.y
      value: 1
      objectReference: {fileID: 0}
    - target: {fileID: 224000012859001416, guid: d46cf6b1ad9d84a48ae7548a2a6b41b3,
        type: 2}
      propertyPath: m_AnchorMax.y
      value: 1
      objectReference: {fileID: 0}
    - target: {fileID: 224000012859001416, guid: d46cf6b1ad9d84a48ae7548a2a6b41b3,
        type: 2}
      propertyPath: m_AnchoredPosition.x
      value: 62
      objectReference: {fileID: 0}
    - target: {fileID: 224000012859001416, guid: d46cf6b1ad9d84a48ae7548a2a6b41b3,
        type: 2}
      propertyPath: m_AnchoredPosition.y
      value: -8
      objectReference: {fileID: 0}
    - target: {fileID: 224000012859001416, guid: d46cf6b1ad9d84a48ae7548a2a6b41b3,
        type: 2}
      propertyPath: m_SizeDelta.x
      value: 121
      objectReference: {fileID: 0}
    - target: {fileID: 224000012859001416, guid: d46cf6b1ad9d84a48ae7548a2a6b41b3,
        type: 2}
      propertyPath: m_SizeDelta.y
      value: 16
      objectReference: {fileID: 0}
    - target: {fileID: 224000012504011746, guid: d46cf6b1ad9d84a48ae7548a2a6b41b3,
        type: 2}
      propertyPath: m_AnchorMin.y
      value: 1
      objectReference: {fileID: 0}
    - target: {fileID: 224000012504011746, guid: d46cf6b1ad9d84a48ae7548a2a6b41b3,
        type: 2}
      propertyPath: m_AnchorMax.y
      value: 1
      objectReference: {fileID: 0}
    - target: {fileID: 224000012504011746, guid: d46cf6b1ad9d84a48ae7548a2a6b41b3,
        type: 2}
      propertyPath: m_AnchoredPosition.x
      value: 62
      objectReference: {fileID: 0}
    - target: {fileID: 224000012504011746, guid: d46cf6b1ad9d84a48ae7548a2a6b41b3,
        type: 2}
      propertyPath: m_AnchoredPosition.y
      value: -30
      objectReference: {fileID: 0}
    - target: {fileID: 224000012504011746, guid: d46cf6b1ad9d84a48ae7548a2a6b41b3,
        type: 2}
      propertyPath: m_SizeDelta.x
      value: 124
      objectReference: {fileID: 0}
    - target: {fileID: 224000012504011746, guid: d46cf6b1ad9d84a48ae7548a2a6b41b3,
        type: 2}
      propertyPath: m_SizeDelta.y
      value: 22
      objectReference: {fileID: 0}
    - target: {fileID: 224000010358937380, guid: d46cf6b1ad9d84a48ae7548a2a6b41b3,
        type: 2}
      propertyPath: m_AnchorMin.y
      value: 1
      objectReference: {fileID: 0}
    - target: {fileID: 224000010358937380, guid: d46cf6b1ad9d84a48ae7548a2a6b41b3,
        type: 2}
      propertyPath: m_AnchorMax.y
      value: 1
      objectReference: {fileID: 0}
    - target: {fileID: 224000010358937380, guid: d46cf6b1ad9d84a48ae7548a2a6b41b3,
        type: 2}
      propertyPath: m_AnchoredPosition.x
      value: 66
      objectReference: {fileID: 0}
    - target: {fileID: 224000010358937380, guid: d46cf6b1ad9d84a48ae7548a2a6b41b3,
        type: 2}
      propertyPath: m_AnchoredPosition.y
      value: -11
      objectReference: {fileID: 0}
    - target: {fileID: 224000010358937380, guid: d46cf6b1ad9d84a48ae7548a2a6b41b3,
        type: 2}
      propertyPath: m_SizeDelta.x
      value: 44
      objectReference: {fileID: 0}
    - target: {fileID: 224000010358937380, guid: d46cf6b1ad9d84a48ae7548a2a6b41b3,
        type: 2}
      propertyPath: m_SizeDelta.y
      value: 16
      objectReference: {fileID: 0}
    - target: {fileID: 224000012747905524, guid: d46cf6b1ad9d84a48ae7548a2a6b41b3,
        type: 2}
      propertyPath: m_AnchorMin.y
      value: 1
      objectReference: {fileID: 0}
    - target: {fileID: 224000012747905524, guid: d46cf6b1ad9d84a48ae7548a2a6b41b3,
        type: 2}
      propertyPath: m_AnchorMax.y
      value: 1
      objectReference: {fileID: 0}
    - target: {fileID: 224000012747905524, guid: d46cf6b1ad9d84a48ae7548a2a6b41b3,
        type: 2}
      propertyPath: m_AnchoredPosition.x
      value: 66
      objectReference: {fileID: 0}
    - target: {fileID: 224000012747905524, guid: d46cf6b1ad9d84a48ae7548a2a6b41b3,
        type: 2}
      propertyPath: m_AnchoredPosition.y
      value: -11
      objectReference: {fileID: 0}
    - target: {fileID: 224000012747905524, guid: d46cf6b1ad9d84a48ae7548a2a6b41b3,
        type: 2}
      propertyPath: m_SizeDelta.x
      value: 121
      objectReference: {fileID: 0}
    - target: {fileID: 224000012747905524, guid: d46cf6b1ad9d84a48ae7548a2a6b41b3,
        type: 2}
      propertyPath: m_SizeDelta.y
      value: 16
      objectReference: {fileID: 0}
    - target: {fileID: 224000010901609716, guid: d46cf6b1ad9d84a48ae7548a2a6b41b3,
        type: 2}
      propertyPath: m_AnchorMin.y
      value: 1
      objectReference: {fileID: 0}
    - target: {fileID: 224000010901609716, guid: d46cf6b1ad9d84a48ae7548a2a6b41b3,
        type: 2}
      propertyPath: m_AnchorMax.y
      value: 1
      objectReference: {fileID: 0}
    - target: {fileID: 224000010901609716, guid: d46cf6b1ad9d84a48ae7548a2a6b41b3,
        type: 2}
      propertyPath: m_AnchoredPosition.x
      value: 66
      objectReference: {fileID: 0}
    - target: {fileID: 224000010901609716, guid: d46cf6b1ad9d84a48ae7548a2a6b41b3,
        type: 2}
      propertyPath: m_AnchoredPosition.y
      value: -8
      objectReference: {fileID: 0}
    - target: {fileID: 224000010901609716, guid: d46cf6b1ad9d84a48ae7548a2a6b41b3,
        type: 2}
      propertyPath: m_SizeDelta.x
      value: 132
      objectReference: {fileID: 0}
    - target: {fileID: 224000010901609716, guid: d46cf6b1ad9d84a48ae7548a2a6b41b3,
        type: 2}
      propertyPath: m_SizeDelta.y
      value: 16
      objectReference: {fileID: 0}
    - target: {fileID: 224000010722234208, guid: d46cf6b1ad9d84a48ae7548a2a6b41b3,
        type: 2}
      propertyPath: m_AnchorMin.y
      value: 1
      objectReference: {fileID: 0}
    - target: {fileID: 224000010722234208, guid: d46cf6b1ad9d84a48ae7548a2a6b41b3,
        type: 2}
      propertyPath: m_AnchorMax.y
      value: 1
      objectReference: {fileID: 0}
    - target: {fileID: 224000010722234208, guid: d46cf6b1ad9d84a48ae7548a2a6b41b3,
        type: 2}
      propertyPath: m_AnchoredPosition.x
      value: 66
      objectReference: {fileID: 0}
    - target: {fileID: 224000010722234208, guid: d46cf6b1ad9d84a48ae7548a2a6b41b3,
        type: 2}
      propertyPath: m_AnchoredPosition.y
      value: -30
      objectReference: {fileID: 0}
    - target: {fileID: 224000010722234208, guid: d46cf6b1ad9d84a48ae7548a2a6b41b3,
        type: 2}
      propertyPath: m_SizeDelta.x
      value: 132
      objectReference: {fileID: 0}
    - target: {fileID: 224000010722234208, guid: d46cf6b1ad9d84a48ae7548a2a6b41b3,
        type: 2}
      propertyPath: m_SizeDelta.y
      value: 22
      objectReference: {fileID: 0}
    - target: {fileID: 224000010535295132, guid: d46cf6b1ad9d84a48ae7548a2a6b41b3,
        type: 2}
      propertyPath: m_AnchorMin.y
      value: 1
      objectReference: {fileID: 0}
    - target: {fileID: 224000010535295132, guid: d46cf6b1ad9d84a48ae7548a2a6b41b3,
        type: 2}
      propertyPath: m_AnchorMax.y
      value: 1
      objectReference: {fileID: 0}
    - target: {fileID: 224000010535295132, guid: d46cf6b1ad9d84a48ae7548a2a6b41b3,
        type: 2}
      propertyPath: m_AnchoredPosition.x
      value: 66
      objectReference: {fileID: 0}
    - target: {fileID: 224000010535295132, guid: d46cf6b1ad9d84a48ae7548a2a6b41b3,
        type: 2}
      propertyPath: m_AnchoredPosition.y
      value: -55
      objectReference: {fileID: 0}
    - target: {fileID: 224000010535295132, guid: d46cf6b1ad9d84a48ae7548a2a6b41b3,
        type: 2}
      propertyPath: m_SizeDelta.x
      value: 132
      objectReference: {fileID: 0}
    - target: {fileID: 224000010535295132, guid: d46cf6b1ad9d84a48ae7548a2a6b41b3,
        type: 2}
      propertyPath: m_SizeDelta.y
      value: 22
      objectReference: {fileID: 0}
    - target: {fileID: 224000012484682510, guid: d46cf6b1ad9d84a48ae7548a2a6b41b3,
        type: 2}
      propertyPath: m_AnchorMin.y
      value: 1
      objectReference: {fileID: 0}
    - target: {fileID: 224000012484682510, guid: d46cf6b1ad9d84a48ae7548a2a6b41b3,
        type: 2}
      propertyPath: m_AnchorMax.y
      value: 1
      objectReference: {fileID: 0}
    - target: {fileID: 224000012484682510, guid: d46cf6b1ad9d84a48ae7548a2a6b41b3,
        type: 2}
      propertyPath: m_AnchoredPosition.x
      value: 71
      objectReference: {fileID: 0}
    - target: {fileID: 224000012484682510, guid: d46cf6b1ad9d84a48ae7548a2a6b41b3,
        type: 2}
      propertyPath: m_AnchoredPosition.y
      value: -25.5
      objectReference: {fileID: 0}
    - target: {fileID: 224000012484682510, guid: d46cf6b1ad9d84a48ae7548a2a6b41b3,
        type: 2}
      propertyPath: m_SizeDelta.x
      value: 124
      objectReference: {fileID: 0}
    - target: {fileID: 224000012484682510, guid: d46cf6b1ad9d84a48ae7548a2a6b41b3,
        type: 2}
      propertyPath: m_SizeDelta.y
      value: 41
      objectReference: {fileID: 0}
    - target: {fileID: 224000010031187690, guid: d46cf6b1ad9d84a48ae7548a2a6b41b3,
        type: 2}
      propertyPath: m_AnchorMin.y
      value: 1
      objectReference: {fileID: 0}
    - target: {fileID: 224000010031187690, guid: d46cf6b1ad9d84a48ae7548a2a6b41b3,
        type: 2}
      propertyPath: m_AnchorMax.y
      value: 1
      objectReference: {fileID: 0}
    - target: {fileID: 224000010031187690, guid: d46cf6b1ad9d84a48ae7548a2a6b41b3,
        type: 2}
      propertyPath: m_AnchoredPosition.x
      value: 71
      objectReference: {fileID: 0}
    - target: {fileID: 224000010031187690, guid: d46cf6b1ad9d84a48ae7548a2a6b41b3,
        type: 2}
      propertyPath: m_AnchoredPosition.y
      value: -82
      objectReference: {fileID: 0}
    - target: {fileID: 224000010031187690, guid: d46cf6b1ad9d84a48ae7548a2a6b41b3,
        type: 2}
      propertyPath: m_SizeDelta.x
      value: 132
      objectReference: {fileID: 0}
    - target: {fileID: 224000010031187690, guid: d46cf6b1ad9d84a48ae7548a2a6b41b3,
        type: 2}
      propertyPath: m_SizeDelta.y
      value: 66
      objectReference: {fileID: 0}
    - target: {fileID: 224000012623161658, guid: d46cf6b1ad9d84a48ae7548a2a6b41b3,
        type: 2}
      propertyPath: m_AnchorMin.y
      value: 1
      objectReference: {fileID: 0}
    - target: {fileID: 224000012623161658, guid: d46cf6b1ad9d84a48ae7548a2a6b41b3,
        type: 2}
      propertyPath: m_AnchorMax.y
      value: 1
      objectReference: {fileID: 0}
    - target: {fileID: 224000012623161658, guid: d46cf6b1ad9d84a48ae7548a2a6b41b3,
        type: 2}
      propertyPath: m_AnchoredPosition.x
      value: 871
      objectReference: {fileID: 0}
    - target: {fileID: 224000012623161658, guid: d46cf6b1ad9d84a48ae7548a2a6b41b3,
        type: 2}
      propertyPath: m_AnchoredPosition.y
      value: -70
      objectReference: {fileID: 0}
    - target: {fileID: 224000012623161658, guid: d46cf6b1ad9d84a48ae7548a2a6b41b3,
        type: 2}
      propertyPath: m_SizeDelta.x
      value: 142
      objectReference: {fileID: 0}
    - target: {fileID: 224000012623161658, guid: d46cf6b1ad9d84a48ae7548a2a6b41b3,
        type: 2}
      propertyPath: m_SizeDelta.y
      value: 120
      objectReference: {fileID: 0}
    m_RemovedComponents: []
  m_SourcePrefab: {fileID: 100100000, guid: d46cf6b1ad9d84a48ae7548a2a6b41b3, type: 2}
  m_IsPrefabAsset: 0
--- !u!224 &1545150381 stripped
RectTransform:
  m_CorrespondingSourceObject: {fileID: 224000013127654674, guid: d46cf6b1ad9d84a48ae7548a2a6b41b3,
    type: 2}
  m_PrefabInternal: {fileID: 1545150380}
--- !u!1 &2040652510
GameObject:
  m_ObjectHideFlags: 0
  m_CorrespondingSourceObject: {fileID: 0}
  m_PrefabInternal: {fileID: 0}
  serializedVersion: 6
  m_Component:
  - component: {fileID: 2040652514}
  - component: {fileID: 2040652513}
  - component: {fileID: 2040652512}
  - component: {fileID: 2040652511}
  m_Layer: 0
  m_Name: Floor
  m_TagString: Untagged
  m_Icon: {fileID: 0}
  m_NavMeshLayer: 0
  m_StaticEditorFlags: 40
  m_IsActive: 1
--- !u!23 &2040652511
MeshRenderer:
  m_ObjectHideFlags: 0
  m_CorrespondingSourceObject: {fileID: 0}
  m_PrefabInternal: {fileID: 0}
  m_GameObject: {fileID: 2040652510}
  m_Enabled: 1
  m_CastShadows: 1
  m_ReceiveShadows: 1
  m_DynamicOccludee: 1
  m_MotionVectors: 1
  m_LightProbeUsage: 1
  m_ReflectionProbeUsage: 1
  m_RenderingLayerMask: 4294967295
  m_Materials:
  - {fileID: 10303, guid: 0000000000000000f000000000000000, type: 0}
  m_StaticBatchInfo:
    firstSubMesh: 0
    subMeshCount: 0
  m_StaticBatchRoot: {fileID: 0}
  m_ProbeAnchor: {fileID: 0}
  m_LightProbeVolumeOverride: {fileID: 0}
  m_ScaleInLightmap: 1
  m_PreserveUVs: 1
  m_IgnoreNormalsForChartDetection: 0
  m_ImportantGI: 0
  m_StitchLightmapSeams: 0
  m_SelectedEditorRenderState: 3
  m_MinimumChartSize: 4
  m_AutoUVMaxDistance: 0.5
  m_AutoUVMaxAngle: 89
  m_LightmapParameters: {fileID: 0}
  m_SortingLayerID: 0
  m_SortingLayer: 0
  m_SortingOrder: 0
--- !u!65 &2040652512
BoxCollider:
  m_ObjectHideFlags: 0
  m_CorrespondingSourceObject: {fileID: 0}
  m_PrefabInternal: {fileID: 0}
  m_GameObject: {fileID: 2040652510}
  m_Material: {fileID: 0}
  m_IsTrigger: 0
  m_Enabled: 1
  serializedVersion: 2
  m_Size: {x: 1, y: 1, z: 1}
  m_Center: {x: 0, y: 0, z: 0}
--- !u!33 &2040652513
MeshFilter:
  m_ObjectHideFlags: 0
  m_CorrespondingSourceObject: {fileID: 0}
  m_PrefabInternal: {fileID: 0}
  m_GameObject: {fileID: 2040652510}
  m_Mesh: {fileID: 10202, guid: 0000000000000000e000000000000000, type: 0}
--- !u!4 &2040652514
Transform:
  m_ObjectHideFlags: 0
  m_CorrespondingSourceObject: {fileID: 0}
  m_PrefabInternal: {fileID: 0}
  m_GameObject: {fileID: 2040652510}
  m_LocalRotation: {x: 0, y: 0, z: 0, w: 1}
  m_LocalPosition: {x: 0, y: 0, z: 0}
  m_LocalScale: {x: 10, y: 1, z: 10}
  m_Children: []
  m_Father: {fileID: 0}
  m_RootOrder: 1
  m_LocalEulerAnglesHint: {x: 0, y: 0, z: 0}
--- !u!1 &2123877843
GameObject:
  m_ObjectHideFlags: 0
  m_CorrespondingSourceObject: {fileID: 0}
  m_PrefabInternal: {fileID: 0}
  serializedVersion: 6
  m_Component:
  - component: {fileID: 2123877845}
  - component: {fileID: 2123877844}
  m_Layer: 0
  m_Name: Directional Light
  m_TagString: Untagged
  m_Icon: {fileID: 0}
  m_NavMeshLayer: 0
  m_StaticEditorFlags: 0
  m_IsActive: 1
--- !u!108 &2123877844
Light:
  m_ObjectHideFlags: 0
  m_CorrespondingSourceObject: {fileID: 0}
  m_PrefabInternal: {fileID: 0}
  m_GameObject: {fileID: 2123877843}
  m_Enabled: 1
  serializedVersion: 8
  m_Type: 1
  m_Color: {r: 1, g: 0.95686275, b: 0.8392157, a: 1}
  m_Intensity: 1
  m_Range: 10
  m_SpotAngle: 30
  m_CookieSize: 10
  m_Shadows:
    m_Type: 2
    m_Resolution: -1
    m_CustomResolution: -1
    m_Strength: 1
    m_Bias: 0.05
    m_NormalBias: 0.4
    m_NearPlane: 0.2
  m_Cookie: {fileID: 0}
  m_DrawHalo: 0
  m_Flare: {fileID: 0}
  m_RenderMode: 0
  m_CullingMask:
    serializedVersion: 2
    m_Bits: 4294967295
  m_Lightmapping: 4
  m_LightShadowCasterMode: 0
  m_AreaSize: {x: 1, y: 1}
  m_BounceIntensity: 1
  m_ColorTemperature: 6570
  m_UseColorTemperature: 0
  m_ShadowRadius: 0
  m_ShadowAngle: 0
--- !u!4 &2123877845
Transform:
  m_ObjectHideFlags: 0
  m_CorrespondingSourceObject: {fileID: 0}
  m_PrefabInternal: {fileID: 0}
  m_GameObject: {fileID: 2123877843}
  m_LocalRotation: {x: 0.40821794, y: -0.23456973, z: 0.109381676, w: 0.87542605}
  m_LocalPosition: {x: 0, y: 3, z: 0}
  m_LocalScale: {x: 1, y: 1, z: 1}
  m_Children: []
  m_Father: {fileID: 0}
  m_RootOrder: 0
  m_LocalEulerAnglesHint: {x: 0, y: 0, z: 0}
